Introduction to Machine Learning in the Digital Humanities - Day 3
…
If the dendogram is cut at height 2.5 then this results in three distinct clusters.

Conclusions about similarity are based on the location on the vertical axis where branches containing the observations are first fused.

hgwells <- gutenberg_download(c(35, 36, 5230, 159,34962,1743))

book_words <- hgwells %>%
  unnest_tokens(word, text) %>% count(gutenberg_id, word, sort = TRUE) %>% ungroup()

total_words <- book_words %>% group_by(gutenberg_id) %>% summarize(total = sum(n))

book_words <- left_join(book_words,total_words) 
book_words

## # A tibble: 38,306 x 4
##    gutenberg_id word      n total
##           <int> <chr> <int> <int>
##  1           36 the    4793 60513
##  2         1743 the    3696 73932
##  3         5230 the    3323 49168
##  4         1743 and    3145 73932
##  5          159 the    3034 44281
##  6        34962 the    2887 48079
##  7           36 and    2504 60513
##  8           36 of     2301 60513
##  9           35 the    2260 32653
## 10         1743 of     2219 73932
## # ... with 38,296 more rows
…
