Introduction to Machine Learning in the Digital Humanities - Day 1
…
A token is a meaningful unit of text, such as a word, that we are intrested in using for analysis. Tokenization is the process of splitting text into tokens.

A text is ready for analysis if it has one-token-per-row. A token is often a single word but it could also be a sentence or a paragraph.

R or other software packages can be used to break text into tokens.

All students should try this example.

vfquote <- c("Everything can be taken from a man but one thing: the last of the human freedomsto choose ones attitude in any given set of circumstances, to choose ones own way.")

vf_df <- data_frame(vfquote) 

unnest_tokens(vf_df,output = word,input = vfquote)

## # A tibble: 31 x 1
##    word      
##    <chr>     
##  1 everything
##  2 can       
##  3 be        
##  4 taken     
##  5 from      
##  6 a         
##  7 man       
##  8 but       
##  9 one       
## 10 thing     
## # ... with 21 more rows
…
tidytext is an example of an R library.

A library is a set of functions that users and companies have written.

Other libraries for handling text are: spacyr, quanteda, cleanNLP.

Stop Words

Stop words are words that are not useful for an analysis, typically extremely common words such as the, of, to, and so forth in English.

The tidytext library has a dataset of stop words stop_words.

stop_words

## # A tibble: 1,149 x 2
##    word        lexicon
##    <chr>       <chr>  
##  1 a           SMART  
##  2 a's         SMART  
##  3 able        SMART  
##  4 about       SMART  
##  5 above       SMART  
##  6 according   SMART  
##  7 accordingly SMART  
##  8 across      SMART  
##  9 actually    SMART  
## 10 after       SMART  
## # ... with 1,139 more rows
…
## [1] "win"    "win"    "winner"

More details on these algorithms can be found using help ?wordStem

Counting Words

If the text is in tidy text format and we want to count the number of words then we use the count() function in the dplyr library.

vfquote <- c("Everything can be taken from a man but one thing: the last of the human freedomsto choose ones attitude in any given set of circumstances, to choose ones own way.")

vf_df <- data_frame(vfquote) 

unnest_tokens(vf_df,output = word,input = vfquote)

## # A tibble: 31 x 1
##    word      
##    <chr>     
##  1 everything
##  2 can       
##  3 be        
##  4 taken     
##  5 from      
##  6 a         
##  7 man       
##  8 but       
##  9 one       
## 10 thing     
## # ... with 21 more rows

unnest_tokens(vf_df,output = word,input = vfquote) %>% count(word,sort=TRUE)

## # A tibble: 26 x 2
##    word         n
##    <chr>    <int>
##  1 choose       2
##  2 of           2
##  3 ones        2
##  4 the          2
##  5 to           2
##  6 a            1
##  7 any          1
##  8 attitude     1
##  9 be           1
## 10 but          1
## # ... with 16 more rows
…
A token is a meaningful unit of text, such as a word, that we are intrested in using for analysis. Tokenization is the process of splitting text into tokens.

A text is ready for analysis if it has one-token-per-row. A token is often a single word but it could also be a sentence or a paragraph.

The tidytext paackage provides functionality to convert to a one-term-per-row format.

We can use unnest_tokens() to break the the text into tokens.

bd_text_df %>% unnest_tokens(word,text)

## # A tibble: 538 x 2
##     line word      
##    <dbl> <chr>     
##  1     1 you       
##  2     1 may       
##  3     1 be        
##  4     1 an        
##  5     1 ambassador
##  6     1 to        
##  7     1 england   
##  8     1 or        
##  9     1 france    
## 10     1 you       
## # ... with 528 more rows

We can use the count() function in the dplyr library to find the most common words in the text.

bd_text_df %>% unnest_tokens(word,text) %>% count(word,sort=TRUE)

## # A tibble: 136 x 2
##    word         n
##    <chr>    <int>
##  1 may         42
##  2 you         41
##  3 be          34
##  4 to          31
##  5 have        22
##  6 gonna       21
##  7 serve       21
##  8 somebody    21
##  9 you're      21
## 10 the         20
## # ... with 126 more rows
…
