Introduction to Machine Learning in the Digital Humanities - Day 2
…
Often called opinion mining.

When we read text we use our understanding of the emotional intent to infer whether a section of text is positive or negative, or perhaps characterized by some other more nuanced emotion like surprise or disgust.

We can use the tools of text mining to approach the emotional content of text programmatically,

One way to analyze the sentiment of a text is to consider the text as a combination of its individual words and the sentiment content of the whole text as the sum of the sentiment content of the individual words. This isnt the only way to approach sentiment analysis, but it is an often-used approach, and an approach that naturally takes advantage of the tidy tool ecosystem.

(Silage and Robinson, 2017)

The sentiments dataset in tidytext

sentiments

## # A tibble: 27,314 x 4
##    word        sentiment lexicon score
##    <chr>       <chr>     <chr>   <int>
##  1 abacus      trust     nrc        NA
##  2 abandon     fear      nrc        NA
##  3 abandon     negative  nrc        NA
##  4 abandon     sadness   nrc        NA
##  5 abandoned   anger     nrc        NA
##  6 abandoned   fear      nrc        NA
##  7 abandoned   negative  nrc        NA
##  8 abandoned   sadness   nrc        NA
##  9 abandonment anger     nrc        NA
## 10 abandonment fear      nrc        NA
## # ... with 27,304 more rows
…
AFINN from Finn rup Nielsen,

bing from Bing Liu and collaborators, and

nrc from Saif Mohammad and Peter Turney.

Comments:

All three are based on single words (i.e., unigrams).

nrc has sentiment categories (positive, negative), and emotional categories (anger, anticipation, disgust, fear, joy, sadness, surprise, trust).

get_sentiments("nrc")

## # A tibble: 13,901 x 2
##    word        sentiment
##    <chr>       <chr>    
##  1 abacus      trust    
##  2 abandon     fear     
##  3 abandon     negative 
##  4 abandon     sadness  
##  5 abandoned   anger    
##  6 abandoned   fear     
##  7 abandoned   negative 
##  8 abandoned   sadness  
##  9 abandonment anger    
## 10 abandonment fear     
## # ... with 13,891 more rows

bing has sentiment categories (positive, negative).

get_sentiments("bing")

## # A tibble: 6,788 x 2
##    word        sentiment
##    <chr>       <chr>    
##  1 2-faced     negative 
##  2 2-faces     negative 
##  3 a+          positive 
##  4 abnormal    negative 
##  5 abolish     negative 
##  6 abominable  negative 
##  7 abominably  negative 
##  8 abominate   negative 
##  9 abomination negative 
## 10 abort       negative 
## # ... with 6,778 more rows

AFINN assigns a score from -5 (negative sentiment) to +5 (positive sentiment).

get_sentiments("afinn")

## # A tibble: 2,476 x 2
##    word       score
##    <chr>      <int>
##  1 abandon       -2
##  2 abandoned     -2
##  3 abandons      -2
##  4 abducted      -2
##  5 abduction     -2
##  6 abductions    -2
##  7 abhor         -3
##  8 abhorred      -3
##  9 abhorrent     -3
## 10 abhors        -3
## # ... with 2,466 more rows
…
Use AFINN lexicon and do an inner-join operation.

AFINN <- sentiments %>%
  filter(lexicon == "AFINN") %>%
  dplyr::select(word, afinn_score = score)

reviews_sentiment <- review_words %>%
  inner_join(AFINN, by = "word") %>%
  group_by(review_id, stars) %>%
  summarize(sentiment = mean(afinn_score))

reviews_sentiment

## # A tibble: 944 x 3
## # Groups:   review_id [?]
##    review_id              stars sentiment
##    <chr>                  <int>     <dbl>
##  1 _-L6PugX8QuW8BH9d20jpA     1    -4    
##  2 _0FegzOEqrJupsYu408c8Q     4     1.5  
##  3 _6i3yW-Tg5Lua-zFLAsrWA     4     2.33 
##  4 _a7Zu2ZSEGO4bl2gvu7OtQ     5     2.67 
##  5 _B49HDJ8DirgEegyslLbdA     5     2.33 
##  6 _dT_bL0WG6Mc3KsLrhBToQ     5     2.57 
##  7 _FgnB8tG-oKwtx96qR1ljQ     4     0.333
##  8 _fKKTE17IGF3rTbs3HEGmw     3     1.5  
##  9 _gyfKZW4056rjnEoR99mmQ     2     1.2  
## 10 _KBLQufhg4_OP0V_q8ZKqA     5     1    
## # ... with 934 more rows
…
book_words <- austen_books() %>%
  unnest_tokens(word, text) %>%
  count(book, word, sort = TRUE) %>%
  ungroup()

total_words <- book_words %>% 
  group_by(book) %>% 
  summarize(total = sum(n))

book_words <- left_join(book_words, total_words)

book_words

## # A tibble: 40,379 x 4
##    book              word      n  total
##    <fct>             <chr> <int>  <int>
##  1 Mansfield Park    the    6206 160460
##  2 Mansfield Park    to     5475 160460
##  3 Mansfield Park    and    5438 160460
##  4 Emma              to     5239 160996
##  5 Emma              the    5201 160996
##  6 Emma              and    4896 160996
##  7 Mansfield Park    of     4778 160460
##  8 Pride & Prejudice the    4331 122204
##  9 Emma              of     4291 160996
## 10 Pride & Prejudice to     4162 122204
## # ... with 40,369 more rows
…
We can calculate tf-idf for the Jane Austen novels.

book_words <- book_words %>% bind_tf_idf(word, book, n)
book_words

## # A tibble: 40,379 x 7
##    book              word      n  total     tf   idf tf_idf
##    <fct>             <chr> <int>  <int>  <dbl> <dbl>  <dbl>
##  1 Mansfield Park    the    6206 160460 0.0387     0      0
##  2 Mansfield Park    to     5475 160460 0.0341     0      0
##  3 Mansfield Park    and    5438 160460 0.0339     0      0
##  4 Emma              to     5239 160996 0.0325     0      0
##  5 Emma              the    5201 160996 0.0323     0      0
##  6 Emma              and    4896 160996 0.0304     0      0
##  7 Mansfield Park    of     4778 160460 0.0298     0      0
##  8 Pride & Prejudice the    4331 122204 0.0354     0      0
##  9 Emma              of     4291 160996 0.0267     0      0
## 10 Pride & Prejudice to     4162 122204 0.0341     0      0
## # ... with 40,369 more rows

Lets look at terms with high tf-idf in Jane Austens works.

book_words %>%
  dplyr::select(-total) %>%
  arrange(desc(tf_idf))

## # A tibble: 40,379 x 6
##    book                word          n      tf   idf  tf_idf
##    <fct>               <chr>     <int>   <dbl> <dbl>   <dbl>
##  1 Sense & Sensibility elinor      623 0.00519  1.79 0.00931
##  2 Sense & Sensibility marianne    492 0.00410  1.79 0.00735
##  3 Mansfield Park      crawford    493 0.00307  1.79 0.00551
##  4 Pride & Prejudice   darcy       373 0.00305  1.79 0.00547
##  5 Persuasion          elliot      254 0.00304  1.79 0.00544
##  6 Emma                emma        786 0.00488  1.10 0.00536
##  7 Northanger Abbey    tilney      196 0.00252  1.79 0.00452
##  8 Emma                weston      389 0.00242  1.79 0.00433
##  9 Pride & Prejudice   bennet      294 0.00241  1.79 0.00431
## 10 Persuasion          wentworth   191 0.00228  1.79 0.00409
## # ... with 40,369 more rows
…
