Introduction to Machine Learning in the Digital Humanities - Day 2
…
library(tidytext)
library(dplyr)

AFINN <- sentiments %>%
  filter(lexicon == "AFINN") %>%
  select(word, afinn_score = score)

reviews_sentiment <- review_words %>%
  inner_join(AFINN, by = "word") %>%
  group_by(review_id, stars) %>%
  summarize(sentiment = mean(afinn_score))

reviews_sentiment

## Source: local data frame [188,543 x 3]
## Groups: review_id [?]
## 
##                 review_id stars  sentiment
##                     <chr> <int>      <dbl>
## 1  __--ULL5SCcn24lYW0Fdfg     5  1.5000000
## 2  __-A_0YYKrw7j_woYU9gJw     4 -1.5000000
## 3  __-D6nkN0qL5wepgSwxzCg     5  1.3333333
## 4  __0YvJRhBnEkcBVfsg3vFw     3  1.9090909
## 5  __1UMTVq9wFMFYo58p9G-w     4  2.2500000
## 6  __2D3wkMJMFhFMyIf4PEcQ     3 -3.0000000
## 7  __2DnhNHN1rNX0TqB03hHw     1 -0.3333333
## 8  __2S7tqIMAHWIy4dyIFoiw     1  0.0000000
## 9  __3gdV_ALx9QQzdXWHHUew     3 -0.6000000
## 10 __3WDpybnBMoQ8QfMaeMBw     5 -3.0000000
## # ... with 188,533 more rows
…
Many novels have similar distributions of words.

This distribution is called Zipfs law.

freq_by_rank <- book_words %>% 
  group_by(book) %>% 
  mutate(rank = row_number(), 
         `term frequency` = n/total)

freq_by_rank

## Source: local data frame [40,379 x 6]
## Groups: book [6]
## 
##                 book  word     n  total  rank `term frequency`
##               <fctr> <chr> <int>  <int> <int>            <dbl>
## 1     Mansfield Park   the  6206 160460     1       0.03867631
## 2     Mansfield Park    to  5475 160460     2       0.03412065
## 3     Mansfield Park   and  5438 160460     3       0.03389007
## 4               Emma    to  5239 160996     1       0.03254118
## 5               Emma   the  5201 160996     2       0.03230515
## 6               Emma   and  4896 160996     3       0.03041069
## 7     Mansfield Park    of  4778 160460     4       0.02977689
## 8  Pride & Prejudice   the  4331 122204     1       0.03544074
## 9               Emma    of  4291 160996     4       0.02665284
## 10 Pride & Prejudice    to  4162 122204     2       0.03405780
## # ... with 40,369 more rows
…
